<?xml version="1.0" encoding="UTF-8" standalone="no"?>
<!-- Created with Inkscape (http://www.inkscape.org/) -->

<svg
   xmlns:dc="http://purl.org/dc/elements/1.1/"
   xmlns:cc="http://creativecommons.org/ns#"
   xmlns:rdf="http://www.w3.org/1999/02/22-rdf-syntax-ns#"
   xmlns:svg="http://www.w3.org/2000/svg"
   xmlns="http://www.w3.org/2000/svg"
   xmlns:sodipodi="http://sodipodi.sourceforge.net/DTD/sodipodi-0.dtd"
   xmlns:inkscape="http://www.inkscape.org/namespaces/inkscape"
   width="48"
   height="48"
   id="svg5045"
   version="1.1"
   inkscape:version="0.91 r13725"
   viewBox="0 0 48 48"
   sodipodi:docname="search.svg">
  <defs
     id="defs5047" />
  <sodipodi:namedview
     id="base"
     pagecolor="#000000"
     bordercolor="#666666"
     borderopacity="1.0"
     inkscape:pageopacity="0"
     inkscape:pageshadow="2"
     inkscape:zoom="7"
     inkscape:cx="21.571429"
     inkscape:cy="24.428571"
     inkscape:current-layer="layer1"
     showgrid="true"
     inkscape:grid-bbox="true"
     inkscape:document-units="px"
     inkscape:snap-object-midpoints="true"
     inkscape:snap-text-baseline="false"
     inkscape:snap-center="true"
     inkscape:window-width="1366"
     inkscape:window-height="768"
     inkscape:window-x="0"
     inkscape:window-y="0"
     inkscape:window-maximized="0" />
  <metadata
     id="metadata5050">
    <rdf:RDF>
      <cc:Work
         rdf:about="">
        <dc:format>image/svg+xml</dc:format>
        <dc:type
           rdf:resource="http://purl.org/dc/dcmitype/StillImage" />
        <dc:title></dc:title>
      </cc:Work>
    </rdf:RDF>
  </metadata>
  <g
     id="layer1"
     inkscape:label="Layer 1"
     inkscape:groupmode="layer">
    <path
       style="fill:#ffffff;fill-opacity:1;stroke:none"
       d="M 17.5 5 A 12.5 12.5 0 0 0 5 17.5 A 12.5 12.5 0 0 0 17.5 30 A 12.5 12.5 0 0 0 30 17.5 A 12.5 12.5 0 0 0 17.5 5 z M 17.5 8 A 9.5 9.5 0 0 1 18.449219 8.046875 A 9.5 9.5 0 0 1 19.386719 8.1894531 A 9.5 9.5 0 0 1 20.306641 8.4238281 A 9.5 9.5 0 0 1 21.199219 8.75 A 9.5 9.5 0 0 1 22.054688 9.1621094 A 9.5 9.5 0 0 1 22.863281 9.6601562 A 9.5 9.5 0 0 1 23.619141 10.234375 A 9.5 9.5 0 0 1 24.314453 10.880859 A 9.5 9.5 0 0 1 24.941406 11.59375 A 9.5 9.5 0 0 1 25.494141 12.367188 A 9.5 9.5 0 0 1 25.966797 13.191406 A 9.5 9.5 0 0 1 26.353516 14.056641 A 9.5 9.5 0 0 1 26.654297 14.958984 A 9.5 9.5 0 0 1 26.861328 15.884766 A 9.5 9.5 0 0 1 26.976562 16.828125 A 9.5 9.5 0 0 1 27 17.5 A 9.5 9.5 0 0 1 26.953125 18.449219 A 9.5 9.5 0 0 1 26.810547 19.386719 A 9.5 9.5 0 0 1 26.576172 20.306641 A 9.5 9.5 0 0 1 26.25 21.199219 A 9.5 9.5 0 0 1 25.837891 22.054688 A 9.5 9.5 0 0 1 25.339844 22.863281 A 9.5 9.5 0 0 1 24.765625 23.619141 A 9.5 9.5 0 0 1 24.119141 24.314453 A 9.5 9.5 0 0 1 23.40625 24.941406 A 9.5 9.5 0 0 1 22.632812 25.494141 A 9.5 9.5 0 0 1 21.808594 25.966797 A 9.5 9.5 0 0 1 20.943359 26.353516 A 9.5 9.5 0 0 1 20.041016 26.654297 A 9.5 9.5 0 0 1 19.115234 26.861328 A 9.5 9.5 0 0 1 18.171875 26.976562 A 9.5 9.5 0 0 1 17.5 27 A 9.5 9.5 0 0 1 16.550781 26.953125 A 9.5 9.5 0 0 1 15.613281 26.810547 A 9.5 9.5 0 0 1 14.693359 26.576172 A 9.5 9.5 0 0 1 13.800781 26.25 A 9.5 9.5 0 0 1 12.945312 25.837891 A 9.5 9.5 0 0 1 12.136719 25.339844 A 9.5 9.5 0 0 1 11.380859 24.765625 A 9.5 9.5 0 0 1 10.685547 24.119141 A 9.5 9.5 0 0 1 10.058594 23.40625 A 9.5 9.5 0 0 1 9.5058594 22.632812 A 9.5 9.5 0 0 1 9.0332031 21.808594 A 9.5 9.5 0 0 1 8.6464844 20.943359 A 9.5 9.5 0 0 1 8.3457031 20.041016 A 9.5 9.5 0 0 1 8.1386719 19.115234 A 9.5 9.5 0 0 1 8.0234375 18.171875 A 9.5 9.5 0 0 1 8 17.5 A 9.5 9.5 0 0 1 8.046875 16.550781 A 9.5 9.5 0 0 1 8.1894531 15.613281 A 9.5 9.5 0 0 1 8.4238281 14.693359 A 9.5 9.5 0 0 1 8.75 13.800781 A 9.5 9.5 0 0 1 9.1621094 12.945312 A 9.5 9.5 0 0 1 9.6601562 12.136719 A 9.5 9.5 0 0 1 10.234375 11.380859 A 9.5 9.5 0 0 1 10.880859 10.685547 A 9.5 9.5 0 0 1 11.59375 10.058594 A 9.5 9.5 0 0 1 12.367188 9.5058594 A 9.5 9.5 0 0 1 13.191406 9.0332031 A 9.5 9.5 0 0 1 14.056641 8.6464844 A 9.5 9.5 0 0 1 14.958984 8.3457031 A 9.5 9.5 0 0 1 15.884766 8.1386719 A 9.5 9.5 0 0 1 16.828125 8.0234375 A 9.5 9.5 0 0 1 17.5 8 z "
       id="path5593" />
    <rect
       style="fill:#ffffff;fill-opacity:1;stroke:none"
       id="rect5597"
       width="4.08248"
       height="22.181486"
       x="-2.0412402"
       y="36.588459"
       ry="0"
       transform="matrix(0.70710678,-0.70710678,0.70710678,0.70710678,0,0)" />
  </g>
</svg>
